complete_stage_wave.vcd
$date
	Tue Nov  4 21:13:56 2025
$end

$version
	Synopsys VCS version V-2023.12-SP2-1_Full64
$end

$timescale
	1ps
$end

$comment Csum: 1 3af6b828bc2a6a60 $end


$scope module testbench $end

$scope module verisimpleV $end

$scope module complete_stage0 $end
$var reg 1 ! clock $end
$var reg 1 " reset $end
$var reg 4 # fu_valid_i [3:0] $end
$var reg 128 $ fu_value_i [127:0] $end
$var reg 28 % fu_dest_prf_i [27:0] $end
$var reg 24 & fu_rob_idx_i [23:0] $end
$var reg 4 ' fu_exception_i [3:0] $end
$var reg 4 ( fu_mispred_i [3:0] $end
$var reg 4 ) prf_wr_en_o [3:0] $end
$var reg 28 * prf_waddr_o [27:0] $end
$var reg 128 + prf_wdata_o [127:0] $end
$var reg 4 , wb_valid_o [3:0] $end
$var reg 24 - wb_rob_idx_o [23:0] $end
$var reg 4 . wb_exception_o [3:0] $end
$var reg 4 / wb_mispred_o [3:0] $end
$var integer 32 0 fd_cm $end
$var reg 180 1 cdb_o [179:0] $end

$scope begin unnamed$$_0 $end
$upscope $end

$upscope $end

$upscope $end

$upscope $end

$enddefinitions $end

#0
$dumpvars
bx00000xxxxxxxxxxxxxxxxxxxxxxxxxxxxxxxxxxxxxxxx00000xxxxxxxxxxxxxxxxxxxxxxxxxxxxxxxxxxxxxxxx00000xxxxxxxxxxxxxxxxxxxxxxxxxxxxxxxxxxxxxxxx00000xxxxxxxxxxxxxxxxxxxxxxxxxxxxxxxxxxxxxxx 1
bxxxxxxxxxxxxxxxxxxxxxxxxxxxx %
bxxxxxxxxxxxxxxxxxxxxxxxx &
bxxxxxxxxxxxxxxxxxxxxxxxxxxxxxxxxxxxxxxxxxxxxxxxxxxxxxxxxxxxxxxxxxxxxxxxxxxxxxxxxxxxxxxxxxxxxxxxxxxxxxxxxxxxxxxxxxxxxxxxxxxxxxxxx $
bxxxxxxxxxxxxxxxxxxxxxxxxxxxx *
bxxxxxxxxxxxxxxxxxxxxxxxxxxxxxxxxxxxxxxxxxxxxxxxxxxxxxxxxxxxxxxxxxxxxxxxxxxxxxxxxxxxxxxxxxxxxxxxxxxxxxxxxxxxxxxxxxxxxxxxxxxxxxxxx +
bxxxxxxxxxxxxxxxxxxxxxxxx -
bxxxxxxxxxxxxxxxxxxxxxxxxxxxxxxxx 0
bxxxx '
bxxxx (
bxxxx #
bxxxx )
bxxxx .
bxxxx /
bxxxx ,
0!
1"
$end
#15000
1!
#30000
0!
#45000
1!
#60000
0!
#75000
1!
#90000
0!
#105000
1!
#106000
0"
#120000
0!
#135000
1!
b0000000000000000000000000000000xxxxxxxxxxxxxxxxxxxxxxxxxxxxxxxxxxxxxxxxxxxxxxxxxxxxxxxxxxxxxxxxxxxxxxxxxxxxxxxxxxxxxxxxxxxxxxxxx $
b1000 '
bx000 (
bx00000xxxxxxx0000000000000000000000000000000xx00000xxxxxxxxxxxxxxxxxxxxxxxxxxxxxxxxxxxxxxxx00000xxxxxxxxxxxxxxxxxxxxxxxxxxxxxxxxxxxxxxxx00000xxxxxxxxxxxxxxxxxxxxxxxxxxxxxxxxxxxxxxx 1
bx000 /
bx000 .
b0000000000000000000000000000000xxxxxxxxxxxxxxxxxxxxxxxxxxxxxxxxxxxxxxxxxxxxxxxxxxxxxxxxxxxxxxxxxxxxxxxxxxxxxxxxxxxxxxxxxxxxxxxxx +
#150000
0!
#165000
1!
b0000 #
b0000000000000000000000000000 %
b000000000000000000000000 &
b000000000000000000000000000000000000000000000000000000000000000000000000000000000000000000000000000000000000000000000000000000000000000000000000000000000000000000000000000000000000 1
b0000 /
b0000 .
b000000000000000000000000 -
b0000 ,
b00000000000000000000000000000000000000000000000000000000000000000000000000000000000000000000000000000000000000000000000000000000 +
b0000000000000000000000000000 *
b0000 )
#180000
0!
#195000
1!
b0001 #
b00000000000000000000000000000001000000000000000000000000000000000000000000000000000000000000000000000000000000000000000000000000 $
b1000 (
b000000000000000000000000000000000000000000000000000000000000000000000000000000000000000000000000000000000000000000000000000000000000000100000000000000000000000000000000000000000000 1
b0001 ,
b0001 )
#210000
0!
#225000
1!
b00000000000000000000000000000001000000000000000000000000000000000000000000000000000000000000000000000000000000000000000000001000 $
b000000000000000000000001 &
b000000000000000000000000000000000000000000000000000000000000000000000000000000000000000000000000000000000000000000000000000000000000000100000000000000000000000000000000000000001000 1
b000000000000000000000001 -
b00000000000000000000000000000000000000000000000000000000000000000000000000000000000000000000000000000000000000000000000000001000 +
#240000
0!
#255000
1!
b00000000000000000000000000000000000000000000000000000000000010000000000000000000000000000000000000000000000000000010000000001000 $
b000000000000000000000010 &
b0000 (
b000000000000000000000000000000000000000000000000000000000000000000000000000000000000000000000000000000000000000000000000000000000000000100000000000000000000000000000010000000001000 1
b000000000000000000000010 -
b00000000000000000000000000000000000000000000000000000000000000000000000000000000000000000000000000000000000000000010000000001000 +
#270000
0!
#285000
1!
b0000 #
b00000000000000000000000000000000000000000000000000100000000010000000000000000000000000000000000000000000000000000010000000001000 $
b000000000000000000000000 &
b000000000000000000000000000000000000000000000000000000000000000000000000000000000000000000000000000000000000000000000000000000000000000000000000000000000000000000000000000000000000 1
b000000000000000000000000 -
b0000 ,
b00000000000000000000000000000000000000000000000000000000000000000000000000000000000000000000000000000000000000000000000000000000 +
b0000 )
#300000
0!
#315000
1!
b0001 #
b00000000000000000000000000000000000000000000000000100000000010000000000000000000000000000000000000100000000010000000000000000000 $
b000000000000000000000100 &
b000000000000000000000000000000000000000000000000000000000000000000000000000000000000000000000000000000000000000000000000000000000000000100000000000000100000000010000000000000000000 1
b000000000000000000000100 -
b0001 ,
b00000000000000000000000000000000000000000000000000000000000000000000000000000000000000000000000000100000000010000000000000000000 +
b0001 )
#330000
0!
#345000
1!
b00000000000000000000000000000000001000000000100000000000000000000000000000000000000000000000000000100000000010000000011110111011 $
b000000000000000000000011 &
b000000000000000000000000000000000000000000000000000000000000000000000000000000000000000000000000000000000000000000000000000000000000000100000000000000100000000010000000011110111011 1
b000000000000000000000011 -
b00000000000000000000000000000000000000000000000000000000000000000000000000000000000000000000000000100000000010000000011110111011 +
#360000
0!
#375000
1!
b00000000000000000000000000000000001000000000100000000111101110110000000000000000000000000000000000100000000010000011011110111011 $
b000000000000000000000101 &
b000000000000000000000000000000000000000000000000000000000000000000000000000000000000000000000000000000000000000000000000000000000000000100000000000000100000000010000011011110111011 1
b000000000000000000000101 -
b00000000000000000000000000000000000000000000000000000000000000000000000000000000000000000000000000100000000010000011011110111011 +
#390000
0!
#405000
1!
b00000000000000000000000000000000001000000000100000110111101110110000000000000000000000000000000000100000000010000011011010100001 $
b000000000000000000000110 &
b000000000000000000000000000000000000000000000000000000000000000000000000000000000000000000000000000000000000000000000000000000000000000100000000000000100000000010000011011010100001 1
b000000000000000000000110 -
b00000000000000000000000000000000000000000000000000000000000000000000000000000000000000000000000000100000000010000011011010100001 +
#420000
0!
#435000
1!
b00000000000000000000000000000000001000000000100000110110101000010000000000000000000000000000000000100000000010000011011010100001 $
b000000000000000000000111 &
b000000000000000000000111 -
#450000
0!
#465000
1!
b00000000000000000000000000000000001000000000100000110110101000010000000000000000000000000000000000100000000010000010111100011100 $
b000000000000000000001001 &
b000000000000000000000000000000000000000000000000000000000000000000000000000000000000000000000000000000000000000000000000000000000000000100000000000000100000000010000010111100011100 1
b000000000000000000001001 -
b00000000000000000000000000000000000000000000000000000000000000000000000000000000000000000000000000100000000010000010111100011100 +
#480000
0!
#495000
1!
b00000000000000000000000000000000001000000000100000101111000111000000000000000000000000000000000010000010111100011100000000000000 $
b000000000000000000001010 &
b000000000000000000000000000000000000000000000000000000000000000000000000000000000000000000000000000000000000000000000000000000000000000100000000000010000010111100011100000000000000 1
b000000000000000000001010 -
b00000000000000000000000000000000000000000000000000000000000000000000000000000000000000000000000010000010111100011100000000000000 +
#510000
0!
#525000
1!
b00000000000000000000000000000000100000101111000111000000000000000000000000000000000000000000000010000010111100011100000000000000 $
b000000000000000000001011 &
b000000000000000000001011 -
#540000
0!
#555000
1!
b00000000000000000000000000000000100000101111000111000000000000000000000000000000000000000000000010000010111100011100000010110000 $
b000000000000000000001100 &
b000000000000000000000000000000000000000000000000000000000000000000000000000000000000000000000000000000000000000000000000000000000000000100000000000010000010111100011100000010110000 1
b000000000000000000001100 -
b00000000000000000000000000000000000000000000000000000000000000000000000000000000000000000000000010000010111100011100000010110000 +
#570000
0!
#585000
1!
b00000000000000000000000000000000100000101111000111000000101100000000000000000000000000000000000000011100000010110000000000000000 $
b000000000000000000001101 &
b000000000000000000000000000000000000000000000000000000000000000000000000000000000000000000000000000000000000000000000000000000000000000100000000000000011100000010110000000000000000 1
b000000000000000000001101 -
b00000000000000000000000000000000000000000000000000000000000000000000000000000000000000000000000000011100000010110000000000000000 +
#600000
0!
#615000
1!
b00000000000000000000000000000000000111000000101100000000000000000000000000000000000000000000000000011100000010110000000000000000 $
b000000000000000000001110 &
b000000000000000000001110 -
#630000
0!
#645000
1!
b00000000000000000000000000000000000111000000101100000000000000000000000000000000000000000000000000011100000010110000000011111101 $
b000000000000000000001111 &
b000000000000000000000000000000000000000000000000000000000000000000000000000000000000000000000000000000000000000000000000000000000000000100000000000000011100000010110000000011111101 1
b000000000000000000001111 -
b00000000000000000000000000000000000000000000000000000000000000000000000000000000000000000000000000011100000010110000000011111101 +
#660000
0!
#675000
1!
b00000000000000000000000000000000000111000000101100000000111111010000000000000000000000000000000000001011000000001111110100000000 $
b000000000000000000010000 &
b000000000000000000000000000000000000000000000000000000000000000000000000000000000000000000000000000000000000000000000000000000000000000100000000000000001011000000001111110100000000 1
b000000000000000000010000 -
b00000000000000000000000000000000000000000000000000000000000000000000000000000000000000000000000000001011000000001111110100000000 +
#690000
0!
#705000
1!
b00000000000000000000000000000000000010110000000011111101000000000000000000000000000000000000000000001011000000001111110100000000 $
b000000000000000000010001 &
b000000000000000000010001 -
#720000
0!
#735000
1!
b00000000000000000000000000000000000010110000000011111101000000000000000000000000000000000000000000001011000000010000110100000000 $
b000000000000000000010010 &
b000000000000000000000000000000000000000000000000000000000000000000000000000000000000000000000000000000000000000000000000000000000000000100000000000000001011000000010000110100000000 1
b000000000000000000010010 -
b00000000000000000000000000000000000000000000000000000000000000000000000000000000000000000000000000001011000000010000110100000000 +
#750000
0!
#765000
1!
b00000000000000000000000000000000000010110000000100001101000000000000000000000000000000000000000000001011000000010001110100000000 $
b000000000000000000001000 &
b000000000000000000000000000000000000000000000000000000000000000000000000000000000000000000000000000000000000000000000000000000000000000100000000000000001011000000010001110100000000 1
b000000000000000000001000 -
b00000000000000000000000000000000000000000000000000000000000000000000000000000000000000000000000000001011000000010001110100000000 +
#780000
0!
#795000
1!
b00000000000000000000000000000000000010110000000100011101000000000000000000000000000000000000000000001011000000010001100001010000 $
b000000000000000000010011 &
b000000000000000000000000000000000000000000000000000000000000000000000000000000000000000000000000000000000000000000000000000000000000000100000000000000001011000000010001100001010000 1
b000000000000000000010011 -
b00000000000000000000000000000000000000000000000000000000000000000000000000000000000000000000000000001011000000010001100001010000 +
#810000
0!
#825000
1!
b00000000000000000000000000000000000010110000000100011000010100000000000000000000000000000000000000010001100001010000000000000000 $
b000000000000000000010100 &
b000000000000000000000000000000000000000000000000000000000000000000000000000000000000000000000000000000000000000000000000000000000000000100000000000000010001100001010000000000000000 1
b000000000000000000010100 -
b00000000000000000000000000000000000000000000000000000000000000000000000000000000000000000000000000010001100001010000000000000000 +
#840000
0!
#855000
1!
b00000000000000000000000000000000000100011000010100000000000000000000000000000000000000000000000000010001100001010000000000000000 $
b000000000000000000010110 &
b000000000000000000010110 -
#870000
0!
#885000
1!
b00000000000000000000000000000000000100011000010100000000000000000000000000000000000000000000000000010001100001010000000000101101 $
b000000000000000000010111 &
b000000000000000000000000000000000000000000000000000000000000000000000000000000000000000000000000000000000000000000000000000000000000000100000000000000010001100001010000000000101101 1
b000000000000000000010111 -
b00000000000000000000000000000000000000000000000000000000000000000000000000000000000000000000000000010001100001010000000000101101 +
#900000
0!
#915000
1!
b00000000000000000000000000000000000100011000010100000000001011010000000000000000000000000000000000011000010100000000001011010000 $
b000000000000000000011000 &
b000000000000000000000000000000000000000000000000000000000000000000000000000000000000000000000000000000000000000000000000000000000000000100000000000000011000010100000000001011010000 1
b000000000000000000011000 -
b00000000000000000000000000000000000000000000000000000000000000000000000000000000000000000000000000011000010100000000001011010000 +
#930000
0!
#945000
1!
b00000000000000000000000000000000000110000101000000000010110100000000000000000000000000000000000000011000010100000000001011010000 $
b000000000000000000011001 &
b000000000000000000011001 -
#960000
0!
#975000
1!
b000000000000000000011010 &
b000000000000000000011010 -
#990000
0!
#1005000
1!
b00000000000000000000000000000000000110000101000000000010110100000000000000000000000000000000000000011000010100000000011111000011 $
b000000000000000000010101 &
b000000000000000000000000000000000000000000000000000000000000000000000000000000000000000000000000000000000000000000000000000000000000000100000000000000011000010100000000011111000011 1
b000000000000000000010101 -
b00000000000000000000000000000000000000000000000000000000000000000000000000000000000000000000000000011000010100000000011111000011 +
#1020000
0!
#1035000
1!
b00000000000000000000000000000000000110000101000000000111110000110000000000000000000000000000000000000000000000000000000000000000 $
b000000000000000000011100 &
b000000000000000000000000000000000000000000000000000000000000000000000000000000000000000000000000000000000000000000000000000000000000000100000000000000000000000000000000000000000000 1
b000000000000000000011100 -
b00000000000000000000000000000000000000000000000000000000000000000000000000000000000000000000000000000000000000000000000000000000 +
#1050000
0!
#1065000
1!
b00000000000000000000000000000001000000000000000000000000000000000000000000000000000000000000000000000000000000000000000000000001 $
b000000000000000000011011 &
b1000 (
b000000000000000000000000000000000000000000000000000000000000000000000000000000000000000000000000000000000000000000000000000000000000000100000000000000000000000000000000000000000001 1
b000000000000000000011011 -
b00000000000000000000000000000000000000000000000000000000000000000000000000000000000000000000000000000000000000000000000000000001 +
#1080000
0!
#1095000
1!
b0010 #
b00000000000000000000000000000000000000000000000000000000000000010000000000000000000000000000000100000000000000000000000000000001 $
b000000000000011101000000 &
b0000 (
b000000000000000000000000000000000000000000000000000000000000000000000000000000000000000000100000000000000000000000000000000000000000001000000000000000000000000000000000000000000000 1
b000000000000011101000000 -
b0010 ,
b00000000000000000000000000000000000000000000000000000000000000000000000000000000000000000000000100000000000000000000000000000000 +
b0010 )
#1110000
0!
#1125000
1!
b0001 #
b00000000000000000000000000000000000000000000000000000000000000010000000000000000000000000000000000000000000000000000000000000010 $
b000000000000000000011110 &
b000000000000000000000000000000000000000000000000000000000000000000000000000000000000000000000000000000000000000000000000000000000000000100000000000000000000000000000000000000000010 1
b000000000000000000011110 -
b0001 ,
b00000000000000000000000000000000000000000000000000000000000000000000000000000000000000000000000000000000000000000000000000000010 +
b0001 )
#1140000
0!
#1155000
1!
b0010 #
b00000000000000000000000000000000000000000000000000000000000000100000000000000000000000000000010000000000000000000000000000000010 $
b000000000000011111000000 &
b000000000000000000000000000000000000000000000000000000000000000000000000000000000000000000100000000000000000000000000000000000000000100000000000000000000000000000000000000000000000 1
b000000000000011111000000 -
b0010 ,
b00000000000000000000000000000000000000000000000000000000000000000000000000000000000000000000010000000000000000000000000000000000 +
b0010 )
#1170000
0!
#1185000
1!
b00000000000000000000000000000000000000000000000000000000000001000000000000000000000000000001000000000000000000000000000000000100 $
b000000000000100001000000 &
b000000000000000000000000000000000000000000000000000000000000000000000000000000000000000000100000000000000000000000000000000000000010000000000000000000000000000000000000000000000000 1
b000000000000100001000000 -
b00000000000000000000000000000000000000000000000000000000000000000000000000000000000000000001000000000000000000000000000000000000 +
#1200000
0!
#1215000
1!
b0001 #
b00000000000000000000000000000000000000000000000000000000000100000000000000000000000000000000000000000000000000000000000000100000 $
b000000000000000000100000 &
b000000000000000000000000000000000000000000000000000000000000000000000000000000000000000000000000000000000000000000000000000000000000000100000000000000000000000000000000000000100000 1
b000000000000000000100000 -
b0001 ,
b00000000000000000000000000000000000000000000000000000000000000000000000000000000000000000000000000000000000000000000000000100000 +
b0001 )
#1230000
0!
#1245000
1!
b0010 #
b00000000000000000000000000000000000000000000000000000000001000000000000000000000000001000000000000000000000000000000000000100000 $
b000000000000100011000000 &
b000000000000000000000000000000000000000000000000000000000000000000000000000000000000000000100000000000000000000000000000000010000000000000000000000000000000000000000000000000000000 1
b000000000000100011000000 -
b0010 ,
b00000000000000000000000000000000000000000000000000000000000000000000000000000000000001000000000000000000000000000000000000000000 +
b0010 )
#1260000
0!
#1275000
1!
b0001 #
b00000000000000000000000000000000000000000000000000000100000000000000000000000000000000000000000000000000000000000000100000000000 $
b000000000000000000100010 &
b000000000000000000000000000000000000000000000000000000000000000000000000000000000000000000000000000000000000000000000000000000000000000100000000000000000000000000000000100000000000 1
b000000000000000000100010 -
b0001 ,
b00000000000000000000000000000000000000000000000000000000000000000000000000000000000000000000000000000000000000000000100000000000 +
b0001 )
#1290000
0!
#1305000
1!
b00000000000000000000000000000000000000000000000000001000000000000000000000000000000000000000000000000000000000000000000000000000 $
b000000000000000000100101 &
b000000000000000000000000000000000000000000000000000000000000000000000000000000000000000000000000000000000000000000000000000000000000000100000000000000000000000000000000000000000000 1
b000000000000000000100101 -
b00000000000000000000000000000000000000000000000000000000000000000000000000000000000000000000000000000000000000000000000000000000 +
#1320000
0!
#1335000
1!
b00000000000000000000000000000001000000000000000000000000000000000000000000000000000000000000000000000000000000000000000000000000 $
b000000000000000000100110 &
b1000 (
b000000000000000000100110 -
#1350000
0!
#1365000
1!
b000000000000000000100111 &
b000000000000000000100111 -
#1380000
0!
#1395000
1!
b000000000000000000101000 &
b000000000000000000101000 -
#1410000
0!
#1425000
1!
b00000000000000000000000000000001000000000000000000000000000000000000000000000000000000000000000000000000000000000000000000010000 $
b000000000000000000101001 &
b000000000000000000000000000000000000000000000000000000000000000000000000000000000000000000000000000000000000000000000000000000000000000100000000000000000000000000000000000000010000 1
b000000000000000000101001 -
b00000000000000000000000000000000000000000000000000000000000000000000000000000000000000000000000000000000000000000000000000010000 +
#1440000
0!
#1455000
1!
b1000 #
b00000000000000000000000000000000000000000000000000000000000100000000000000000000000000000000000000000000000000000000000000010000 $
b101010000000000000000000 &
b0000 (
b100000000000000000000000000000000000000000000000000000000000000000000000000000000000000000000000000000000000000000000000000000000000000000000000000000000000000000000000000000000000 1
b1000 .
b101010000000000000000000 -
b1000 ,
b00000000000000000000000000000000000000000000000000000000000000000000000000000000000000000000000000000000000000000000000000000000 +
b1000 )
#1470000
0!
#1485000
1!
b0001 #
b00000000000000000000000000000001000000000000000000000000000000000000000000000000000000000000000000000000000000000000000000000000 $
b000000000000000000101011 &
b1000 (
b000000000000000000000000000000000000000000000000000000000000000000000000000000000000000000000000000000000000000000000000000000000000000100000000000000000000000000000000000000000000 1
b0000 .
b000000000000000000101011 -
b0001 ,
b0001 )
#1500000
0!
#1515000
1!
b000000000000000000101100 &
b000000000000000000101100 -
#1530000
0!
#1545000
1!
b000000000000000000101101 &
b000000000000000000101101 -
#1560000
0!
#1575000
1!
b000000000000000000101110 &
b000000000000000000101110 -
#1590000
0!
#1605000
1!
b000000000000000000101111 &
b000000000000000000101111 -
#1620000
0!
#1635000
1!
b000000000000000000110000 &
b000000000000000000110000 -
#1650000
0!
#1665000
1!
b000000000000000000110001 &
b000000000000000000110001 -
#1680000
0!
#1695000
1!
b000000000000000000110010 &
b000000000000000000110010 -
#1710000
0!
#1725000
1!
b000000000000000000110011 &
b000000000000000000110011 -
#1740000
0!
#1755000
1!
b000000000000000000110100 &
b000000000000000000110100 -
#1770000
0!
#1785000
1!
b000000000000000000110101 &
b000000000000000000110101 -
#1800000
0!
#1815000
1!
b000000000000000000110110 &
b000000000000000000110110 -
#1830000
0!
#1845000
1!
b000000000000000000110111 &
b000000000000000000110111 -
#1860000
0!
#1875000
1!
b000000000000000000111000 &
b000000000000000000111000 -
#1890000
0!
#1905000
1!
b000000000000000000111001 &
b000000000000000000111001 -
#1920000
0!
#1935000
1!
b000000000000000000111010 &
b000000000000000000111010 -
#1950000
0!
#1965000
1!
b000000000000000000111011 &
b000000000000000000111011 -
#1980000
0!
#1995000
1!
b000000000000000000111100 &
b000000000000000000111100 -
#2010000
0!
#2025000
1!
b000000000000000000111101 &
b000000000000000000111101 -
#2040000
0!
#2055000
1!
b000000000000000000111110 &
b000000000000000000111110 -
#2070000
0!
#2085000
1!
b000000000000000000111111 &
b000000000000000000111111 -
#2100000
0!
#2115000
1!
b000000000000000000000000 &
b000000000000000000000000 -
#2130000
0!
#2145000
1!
b000000000000000000000001 &
b000000000000000000000001 -
#2160000
0!
#2175000
1!
b000000000000000000000010 &
b000000000000000000000010 -
#2190000
0!
#2205000
1!
b000000000000000000000011 &
b000000000000000000000011 -
#2220000
0!
#2235000
1!
b000000000000000000000100 &
b000000000000000000000100 -
#2250000
0!
#2265000
1!
b000000000000000000000101 &
b000000000000000000000101 -
#2280000
0!
#2295000
1!
b000000000000000000000110 &
b000000000000000000000110 -
#2310000
0!
#2325000
1!
b000000000000000000000111 &
b000000000000000000000111 -
#2340000
0!
#2355000
1!
b000000000000000000001000 &
b000000000000000000001000 -
#2370000
0!
#2385000
1!
b000000000000000000001001 &
b000000000000000000001001 -
#2400000
0!
#2415000
1!
b000000000000000000001010 &
b000000000000000000001010 -
#2430000
0!
#2445000
1!
b000000000000000000001011 &
b000000000000000000001011 -
#2460000
0!
#2475000
1!
b000000000000000000001100 &
b000000000000000000001100 -
#2490000
0!
#2505000
1!
b000000000000000000001101 &
b000000000000000000001101 -
#2520000
0!
#2535000
1!
b000000000000000000001110 &
b000000000000000000001110 -
#2550000
0!
#2565000
1!
b000000000000000000001111 &
b000000000000000000001111 -
#2580000
0!
#2595000
1!
b000000000000000000010000 &
b000000000000000000010000 -
#2610000
0!
#2625000
1!
b000000000000000000010001 &
b000000000000000000010001 -
#2640000
0!
#2655000
1!
b000000000000000000010010 &
b000000000000000000010010 -
#2670000
0!
#2685000
1!
b000000000000000000010011 &
b000000000000000000010011 -
#2700000
0!
#2715000
1!
b000000000000000000010100 &
b000000000000000000010100 -
#2730000
0!
#2745000
1!
b000000000000000000010101 &
b000000000000000000010101 -
#2760000
0!
#2775000
1!
b000000000000000000010110 &
b000000000000000000010110 -
#2790000
0!
#2805000
1!
b000000000000000000010111 &
b000000000000000000010111 -
#2820000
0!
#2835000
1!
b000000000000000000011000 &
b000000000000000000011000 -
#2850000
0!
#2865000
1!
b000000000000000000011001 &
b000000000000000000011001 -
#2880000
0!
#2895000
1!
b000000000000000000011010 &
b000000000000000000011010 -
#2910000
0!
#2925000
1!
b000000000000000000011011 &
b000000000000000000011011 -
#2940000
0!
#2955000
1!
b000000000000000000011100 &
b000000000000000000011100 -
#2970000
0!
#2985000
1!
b0000 #
b000000000000000000000000 &
b000000000000000000000000000000000000000000000000000000000000000000000000000000000000000000000000000000000000000000000000000000000000000000000000000000000000000000000000000000000000 1
b000000000000000000000000 -
b0000 ,
b0000 )
