icache_tb_idcache.vcd
$date
	Mon Dec  1 01:33:40 2025
$end

$version
	Synopsys VCS version V-2023.12-SP2-1_Full64
$end

$timescale
	100ps
$end

$comment Csum: 1 c1cc7f491956ef9c $end


$scope module testbench $end

$scope module verisimpleV $end

$scope module icache_0 $end
$var wire 1 ! clock $end
$var wire 1 " reset $end
$var reg 4 # Imem2proc_transaction_tag [3:0] $end
$var reg 4 $ Imem2proc_data_tag [3:0] $end
$var reg 32 % proc2Icache_addr [31:0] $end
$var reg 2 & proc2Imem_command [1:0] $end
$var reg 32 ' proc2Imem_addr [31:0] $end
$var reg 1 ( Icache_valid_out $end
$var reg 8 ) current_tag [7:0] $end
$var reg 8 * last_tag [7:0] $end
$var reg 5 + current_index [4:0] $end
$var reg 5 , last_index [4:0] $end
$var reg 1 - got_mem_data $end
$var reg 1 . icache_we $end
$var reg 4 / current_mem_tag [3:0] $end
$var reg 1 0 miss_outstanding $end
$var reg 1 1 changed_addr $end
$var reg 1 2 update_mem_tag $end
$var reg 1 3 unanswered_miss $end
$var reg 64 4 Imem2proc_data [63:0] $end
$var reg 64 5 Icache_data_out [63:0] $end
$var reg 288 6 icache_tags [287:0] $end

$scope module icache_mem $end
$var wire 1 ! clock $end
$var wire 1 " reset $end
$var wire 1 7 re [0:0] $end
$var wire 5 8 raddr [4:0] $end
$var reg 64 9 rdata [63:0] $end
$var wire 1 : we $end
$var wire 5 ; waddr [4:0] $end
$var wire 64 < wdata [63:0] $end
$var reg 2048 = memData [2047:0] $end

$scope begin unnamed$$_0 $end
$upscope $end


$scope begin genblk1[0].bypass_path $end
$upscope $end


$scope begin genblk1[0].non_bypass_path $end
$upscope $end

$upscope $end

$upscope $end


$scope module stage_if_0 $end
$var reg 1 > clock $end
$var reg 1 ? reset $end
$var reg 1 @ if_valid $end
$var reg 1 A if_flush $end
$var reg 1 B take_branch $end
$var reg 1 C disp_n [0:0] $end
$var reg 1 D pred_valid_i $end
$var reg 2 E pred_lane_i [-1:0] $end
$var reg 1 F pred_taken_i $end
$var reg 32 G pred_target_i [31:0] $end
$var wire 1 H Icache_valid $end
$var reg 32 I Imem_addr [31:0] $end
$var reg 32 J correct_pc_target_o [31:0] $end
$var reg 32 K PC_reg [31:0] $end
$var reg 32 L PC_next [31:0] $end
$var reg 1 M stall_fetch $end
$var reg 32 N GEN_FETCH_LANES[0].this_pc [31:0] $end
$var reg 32 O GEN_FETCH_LANES[0].this_inst [31:0] $end
$var reg 1 P GEN_FETCH_LANES[0].this_valid $end
$var reg 64 Q Icache_data [63:0] $end
$var reg 97 R if_packet_o [96:0] $end
$upscope $end

$upscope $end

$upscope $end


$scope module stage_if_123 $end

$scope module icache_0 $end
$var wire 1 S clock $end
$var wire 1 T reset $end
$var reg 4 U Imem2proc_transaction_tag [3:0] $end
$var reg 4 V Imem2proc_data_tag [3:0] $end
$var reg 32 W proc2Icache_addr [31:0] $end
$var reg 2 X proc2Imem_command [1:0] $end
$var reg 32 Y proc2Imem_addr [31:0] $end
$var reg 1 Z Icache_valid_out $end
$var reg 8 [ current_tag [7:0] $end
$var reg 8 \ last_tag [7:0] $end
$var reg 5 ] current_index [4:0] $end
$var reg 5 ^ last_index [4:0] $end
$var reg 1 _ got_mem_data $end
$var reg 1 ` icache_we $end
$var reg 4 a current_mem_tag [3:0] $end
$var reg 1 b miss_outstanding $end
$var reg 1 c changed_addr $end
$var reg 1 d update_mem_tag $end
$var reg 1 e unanswered_miss $end
$var reg 64 f Imem2proc_data [63:0] $end
$var reg 64 g Icache_data_out [63:0] $end
$var reg 288 h icache_tags [287:0] $end

$scope module icache_mem $end
$var wire 1 S clock $end
$var wire 1 T reset $end
$var wire 1 i re [0:0] $end
$var wire 5 j raddr [4:0] $end
$var reg 64 k rdata [63:0] $end
$var wire 1 l we $end
$var wire 5 m waddr [4:0] $end
$var wire 64 n wdata [63:0] $end
$var reg 2048 o memData [2047:0] $end

$scope begin unnamed$$_0 $end
$upscope $end


$scope begin genblk1[0].bypass_path $end
$upscope $end


$scope begin genblk1[0].non_bypass_path $end
$upscope $end

$upscope $end

$upscope $end

$upscope $end

$enddefinitions $end

#0
$dumpvars
x1
x-
x.
x0
17
x3
x2
x:
bxxxxxxxxxxxxxxxxxxxxxxxxxxxxxxxxxxxxxxxxxxxxxxxxxxxxxxxxxxxxxxxx 5
bxxxx $
bxxxxxxxxxxxxxxxxxxxxxxxxxxxxxxxxxxxxxxxxxxxxxxxxxxxxxxxxxxxxxxxx 4
b000x #
bxxxx /
bxxxxxxxxxxxxxxxxxxxxxxxxxxxxxxxxxxxxxxxxxxxxxxxxxxxxxxxxxxxxxxxxxxxxxxxxxxxxxxxxxxxxxxxxxxxxxxxxxxxxxxxxxxxxxxxxxxxxxxxxxxxxxxxxxxxxxxxxxxxxxxxxxxxxxxxxxxxxxxxxxxxxxxxxxxxxxxxxxxxxxxxxxxxxxxxxxxxxxxxxxxxxxxxxxxxxxxxxxxxxxxxxxxxxxxxxxxxxxxxxxxxxxxxxxxxxxxxxxxxxxxxxxxxxxxxxxxxxxxxxxxxxxxxx 6
bxxxxxxxxxxxxxxxxxxxxxxxxxxxxxxxxxxxxxxxxxxxxxxxxxxxxxxxxxxxxxxxxxxxxxxxxxxxxxxxxxxxxxxxxxxxxxxxxxxxxxxxxxxxxxxxxxxxxxxxxxxxxxxxxxxxxxxxxxxxxxxxxxxxxxxxxxxxxxxxxxxxxxxxxxxxxxxxxxxxxxxxxxxxxxxxxxxxxxxxxxxxxxxxxxxxxxxxxxxxxxxxxxxxxxxxxxxxxxxxxxxxxxxxxxxxxxxxxxxxxxxxxxxxxxxxxxxxxxxxxxxxxxxxxxxxxxxxxxxxxxxxxxxxxxxxxxxxxxxxxxxxxxxxxxxxxxxxxxxxxxxxxxxxxxxxxxxxxxxxxxxxxxxxxxxxxxxxxxxxxxxxxxxxxxxxxxxxxxxxxxxxxxxxxxxxxxxxxxxxxxxxxxxxxxxxxxxxxxxxxxxxxxxxxxxxxxxxxxxxxxxxxxxxxxxxxxxxxxxxxxxxxxxxxxxxxxxxxxxxxxxxxxxxxxxxxxxxxxxxxxxxxxxxxxxxxxxxxxxxxxxxxxxxxxxxxxxxxxxxxxxxxxxxxxxxxxxxxxxxxxxxxxxxxxxxxxxxxxxxxxxxxxxxxxxxxxxxxxxxxxxxxxxxxxxxxxxxxxxxxxxxxxxxxxxxxxxxxxxxxxxxxxxxxxxxxxxxxxxxxxxxxxxxxxxxxxxxxxxxxxxxxxxxxxxxxxxxxxxxxxxxxxxxxxxxxxxxxxxxxxxxxxxxxxxxxxxxxxxxxxxxxxxxxxxxxxxxxxxxxxxxxxxxxxxxxxxxxxxxxxxxxxxxxxxxxxxxxxxxxxxxxxxxxxxxxxxxxxxxxxxxxxxxxxxxxxxxxxxxxxxxxxxxxxxxxxxxxxxxxxxxxxxxxxxxxxxxxxxxxxxxxxxxxxxxxxxxxxxxxxxxxxxxxxxxxxxxxxxxxxxxxxxxxxxxxxxxxxxxxxxxxxxxxxxxxxxxxxxxxxxxxxxxxxxxxxxxxxxxxxxxxxxxxxxxxxxxxxxxxxxxxxxxxxxxxxxxxxxxxxxxxxxxxxxxxxxxxxxxxxxxxxxxxxxxxxxxxxxxxxxxxxxxxxxxxxxxxxxxxxxxxxxxxxxxxxxxxxxxxxxxxxxxxxxxxxxxxxxxxxxxxxxxxxxxxxxxxxxxxxxxxxxxxxxxxxxxxxxxxxxxxxxxxxxxxxxxxxxxxxxxxxxxxxxxxxxxxxxxxxxxxxxxxxxxxxxxxxxxxxxxxxxxxxxxxxxxxxxxxxxxxxxxxxxxxxxxxxxxxxxxxxxxxxxxxxxxxxxxxxxxxxxxxxxxxxxxxxxxxxxxxxxxxxxxxxxxxxxxxxxxxxxxxxxxxxxxxxxxxxxxxxxxxxxxxxxxxxxxxxxxxxxxxxxxxxxxxxxxxxxxxxxxxxxxxxxxxxxxxxxxxxxxxxxxxxxxxxxxxxxxxxxxxxxxxxxxxxxxxxxxxxxxxxxxxxxxxxxxxxxxxxxxxxxxxxxxxxxxxxxxxxxxxxxxxxxxxxxxxxxxxxxxxxxxxxxxxxxxxxxxxxxxxxxxxxxxxxxxxxxxxxxxxxxxxxxxxxxxxxxxxxxxxxxxxxxxxxxxxxxxxxxxxxxxxxxxxxxxxxxxxxxxxxxxxxxxxxxxxxxxxxxxxxxxxxxxxxxxxxxxxxxxxxxxxxxxxxxxxxxxxxxxxxxxxxxxxxxxxxxxxxxxxxxxxxxxxxxxxxxxxxxxxxxxxxxxxxxxxxxxxxxxxxxxxxxxxxxxxxxxxxxxxxxxxxxxxxxxxxxxxxxxxxxxxxxxxxxxxxxxxxxxxxxxxxxxxxxxxxxxxxxxxxxxxxxxxxxxxxxxxxxxxxxxxxxxxxxxxxxxxxxxxxxxxxxxxxxxxxxxxxxxxxxxxxxxxxxxxxxxxxxxxxxxxxxxxxxxxxxxxxxxxxxxxxxxxxxxxxxxxxxxxxxxxxxxxxxxxxxxxxxxxxxxxxxxxxxxxxxxxxxxxxxxxxxxxxxxxxxxxxxxxxxxxxxxxxxxxxxxxxxxxxxxxxxxxxxxxxxxxxxxx =
bxxxxxxxxxxxxxxxxxxxxxxxxxxxxx000 %
bxxxxxxxxxxxxxxxxxxxxxxxxxxxxx000 '
bxxxxx 8
bxxxxxxxxxxxxxxxxxxxxxxxxxxxxxxxxxxxxxxxxxxxxxxxxxxxxxxxxxxxxxxxx 9
bxxxxx +
bxxxxxxxx )
bxxxxx ,
bxxxxxxxx *
b0x &
bxxxxx ;
bxxxxxxxxxxxxxxxxxxxxxxxxxxxxxxxxxxxxxxxxxxxxxxxxxxxxxxxxxxxxxxxx <
0P
xM
bxxxxxxxxxxxxxxxxxxxxxxxxxxxxxxxx O
bxxxxxxxxxxxxxxxxxxxxxxxxxxxxxxxx N
bxxxxxxxxxxxxxxxxxxxxxxxxxxxxxxxx L
bxxxxxxxxxxxxxxxxxxxxxxxxxxxxxxxx K
bxxxxxxxxxxxxxxxxxxxxxxxxxxxxxxxxxxxxxxxxxxxxxxxxxxxxxxxxxxxxxxxx Q
bxxxxxxxxxxxxxxxxxxxxxxxxxxxxx000 I
b00000000000000000000000000010011xxxxxxxxxxxxxxxxxxxxxxxxxxxxxxxxxxxxxxxxxxxxxxxxxxxxxxxxxxxxxxxx0 R
bxxxxxxxxxxxxxxxxxxxxxxxxxxxxxxxx J
bxx E
bxxxxxxxxxxxxxxxxxxxxxxxxxxxxxxxx G
xc
x_
x`
xb
1i
xe
xd
xl
bxxxxxxxxxxxxxxxxxxxxxxxxxxxxxxxxxxxxxxxxxxxxxxxxxxxxxxxxxxxxxxxx g
bxxxx V
bxxxxxxxxxxxxxxxxxxxxxxxxxxxxxxxxxxxxxxxxxxxxxxxxxxxxxxxxxxxxxxxx f
bxxxx U
bxxxx a
bxxxxxxxxxxxxxxxxxxxxxxxxxxxxxxxxxxxxxxxxxxxxxxxxxxxxxxxxxxxxxxxxxxxxxxxxxxxxxxxxxxxxxxxxxxxxxxxxxxxxxxxxxxxxxxxxxxxxxxxxxxxxxxxxxxxxxxxxxxxxxxxxxxxxxxxxxxxxxxxxxxxxxxxxxxxxxxxxxxxxxxxxxxxxxxxxxxxxxxxxxxxxxxxxxxxxxxxxxxxxxxxxxxxxxxxxxxxxxxxxxxxxxxxxxxxxxxxxxxxxxxxxxxxxxxxxxxxxxxxxxxxxxxxx h
bxxxxxxxxxxxxxxxxxxxxxxxxxxxxxxxxxxxxxxxxxxxxxxxxxxxxxxxxxxxxxxxxxxxxxxxxxxxxxxxxxxxxxxxxxxxxxxxxxxxxxxxxxxxxxxxxxxxxxxxxxxxxxxxxxxxxxxxxxxxxxxxxxxxxxxxxxxxxxxxxxxxxxxxxxxxxxxxxxxxxxxxxxxxxxxxxxxxxxxxxxxxxxxxxxxxxxxxxxxxxxxxxxxxxxxxxxxxxxxxxxxxxxxxxxxxxxxxxxxxxxxxxxxxxxxxxxxxxxxxxxxxxxxxxxxxxxxxxxxxxxxxxxxxxxxxxxxxxxxxxxxxxxxxxxxxxxxxxxxxxxxxxxxxxxxxxxxxxxxxxxxxxxxxxxxxxxxxxxxxxxxxxxxxxxxxxxxxxxxxxxxxxxxxxxxxxxxxxxxxxxxxxxxxxxxxxxxxxxxxxxxxxxxxxxxxxxxxxxxxxxxxxxxxxxxxxxxxxxxxxxxxxxxxxxxxxxxxxxxxxxxxxxxxxxxxxxxxxxxxxxxxxxxxxxxxxxxxxxxxxxxxxxxxxxxxxxxxxxxxxxxxxxxxxxxxxxxxxxxxxxxxxxxxxxxxxxxxxxxxxxxxxxxxxxxxxxxxxxxxxxxxxxxxxxxxxxxxxxxxxxxxxxxxxxxxxxxxxxxxxxxxxxxxxxxxxxxxxxxxxxxxxxxxxxxxxxxxxxxxxxxxxxxxxxxxxxxxxxxxxxxxxxxxxxxxxxxxxxxxxxxxxxxxxxxxxxxxxxxxxxxxxxxxxxxxxxxxxxxxxxxxxxxxxxxxxxxxxxxxxxxxxxxxxxxxxxxxxxxxxxxxxxxxxxxxxxxxxxxxxxxxxxxxxxxxxxxxxxxxxxxxxxxxxxxxxxxxxxxxxxxxxxxxxxxxxxxxxxxxxxxxxxxxxxxxxxxxxxxxxxxxxxxxxxxxxxxxxxxxxxxxxxxxxxxxxxxxxxxxxxxxxxxxxxxxxxxxxxxxxxxxxxxxxxxxxxxxxxxxxxxxxxxxxxxxxxxxxxxxxxxxxxxxxxxxxxxxxxxxxxxxxxxxxxxxxxxxxxxxxxxxxxxxxxxxxxxxxxxxxxxxxxxxxxxxxxxxxxxxxxxxxxxxxxxxxxxxxxxxxxxxxxxxxxxxxxxxxxxxxxxxxxxxxxxxxxxxxxxxxxxxxxxxxxxxxxxxxxxxxxxxxxxxxxxxxxxxxxxxxxxxxxxxxxxxxxxxxxxxxxxxxxxxxxxxxxxxxxxxxxxxxxxxxxxxxxxxxxxxxxxxxxxxxxxxxxxxxxxxxxxxxxxxxxxxxxxxxxxxxxxxxxxxxxxxxxxxxxxxxxxxxxxxxxxxxxxxxxxxxxxxxxxxxxxxxxxxxxxxxxxxxxxxxxxxxxxxxxxxxxxxxxxxxxxxxxxxxxxxxxxxxxxxxxxxxxxxxxxxxxxxxxxxxxxxxxxxxxxxxxxxxxxxxxxxxxxxxxxxxxxxxxxxxxxxxxxxxxxxxxxxxxxxxxxxxxxxxxxxxxxxxxxxxxxxxxxxxxxxxxxxxxxxxxxxxxxxxxxxxxxxxxxxxxxxxxxxxxxxxxxxxxxxxxxxxxxxxxxxxxxxxxxxxxxxxxxxxxxxxxxxxxxxxxxxxxxxxxxxxxxxxxxxxxxxxxxxxxxxxxxxxxxxxxxxxxxxxxxxxxxxxxxxxxxxxxxxxxxxxxxxxxxxxxxxxxxxxxxxxxxxxxxxxxxxxxxxxxxxxxxxxxxxxxxxxxxxxxxxxxxxxxxxxxxxxxxxxxxxxxxxxxxxxxxxxxxxxxxxxxxxxxxxxxxxxxxxxxxxxxxxxxxxxxxxxxxxxxxxxxxxxxxxxxxxxxxxxxxxxxxxxxxxxxxxxxxxxxxxxxxxxxxxxxxxxxxxxxxxxxxxxxxxxxxxxxxxxxxxxxxxxxxxxxxxxxxxxxxxxxxxxxxxxxxxxxxxxxxxxxxxxxxxxxxxxxxxxxxxxxxxxxxxxxxxxxxxxxxxxxxxxxxxxxxxxxxxxxxxxxxxxxxxxxxxxxxxxxxxxxxxxxxxxxxxxxxxxxxxxxxxxxxxx o
bxxxxxxxxxxxxxxxxxxxxxxxxxxxxxxxx W
bxxxxxxxxxxxxxxxxxxxxxxxxxxxxx000 Y
bxxxxx j
bxxxxxxxxxxxxxxxxxxxxxxxxxxxxxxxxxxxxxxxxxxxxxxxxxxxxxxxxxxxxxxxx k
bxxxxx ]
bxxxxxxxx [
bxxxxx ^
bxxxxxxxx \
b0x X
bxxxxx m
bxxxxxxxxxxxxxxxxxxxxxxxxxxxxxxxxxxxxxxxxxxxxxxxxxxxxxxxxxxxxxxxx n
1"
0>
1?
0B
x@
xA
0D
0F
0!
x(
zS
xZ
1C
xH
zT
$end
#75
1!
1>
b0000 $
b0000 #
b00000000000000000000000000000000 J
b11111 ,
b11111111 *
b0000 /
00
b00 &
b000000000000000000000000000000000000000000000000000000000000000000000000000000000000000000000000000000000000000000000000000000000000000000000000000000000000000000000000000000000000000000000000000000000000000000000000000000000000000000000000000000000000000000000000000000000000000000000000 6
b00000000000000000000000000000000000000000000000000000000000000000000000000000000000000000000000000000000000000000000000000000000000000000000000000000000000000000000000000000000000000000000000000000000000000000000000000000000000000000000000000000000000000000000000000000000000000000000000000000000000000000000000000000000000000000000000000000000000000000000000000000000000000000000000000000000000000000000000000000000000000000000000000000000000000000000000000000000000000000000000000000000000000000000000000000000000000000000000000000000000000000000000000000000000000000000000000000000000000000000000000000000000000000000000000000000000000000000000000000000000000000000000000000000000000000000000000000000000000000000000000000000000000000000000000000000000000000000000000000000000000000000000000000000000000000000000000000000000000000000000000000000000000000000000000000000000000000000000000000000000000000000000000000000000000000000000000000000000000000000000000000000000000000000000000000000000000000000000000000000000000000000000000000000000000000000000000000000000000000000000000000000000000000000000000000000000000000000000000000000000000000000000000000000000000000000000000000000000000000000000000000000000000000000000000000000000000000000000000000000000000000000000000000000000000000000000000000000000000000000000000000000000000000000000000000000000000000000000000000000000000000000000000000000000000000000000000000000000000000000000000000000000000000000000000000000000000000000000000000000000000000000000000000000000000000000000000000000000000000000000000000000000000000000000000000000000000000000000000000000000000000000000000000000000000000000000000000000000000000000000000000000000000000000000000000000000000000000000000000000000000000000000000000000000000000000000000000000000000000000000000000000000000000000000000000000000000000000000000000000000000000000000000000000000000000000000000000000000000000000000000000000000000000000000000000000000000000000000000000000000000000000000000000000000000000000000000000000000000000000000000000000 =
b00000000000000000000000000000000 K
b00000000000000000000000000000000 I
b00000000000000000000000000000000 %
b00000 +
b00000 ;
b00000 8
b00000000 )
b00000000000000000000000000000000 '
0A
b00000000000000000000000000000x00 L
0-
0.
0:
b0000000000000000000000000000000000000000000000000000000000000000 9
b0000000000000000000000000000000000000000000000000000000000000000 5
b0000000000000000000000000000000000000000000000000000000000000000 Q
b000000000000000000000000000x00xx O
b00000000000000000000000000000000 N
11
0(
0H
b0000000000000000000000000001001100000000000000000000000000000000000000000000000000000000000001000 R
12
b00000000000000000000000000010011 O
13
0@
0M
b00000000000000000000000000000000 L
1@
1M
#150
0!
0>
b0000000000000000000000000000000000000000000000000000000000000000 4
b0000000000000000000000000000000000000000000000000000000000000000 <
b0001 $
b0001 #
#225
1!
1>
#300
0!
0>
b0000000000000000000100010011011100000000000100000000001100010011 4
b0000000000000000000100010011011100000000000100000000001100010011 <
#375
1!
1>
#450
0!
0>
#525
1!
1>
#535
0"
0?
#600
0!
0>
#675
1!
1>
bxxxxxxxxxxxxxxxxxxxxxxxxxxxxxxxx J
b00000 ,
b00000000 *
b0001 /
10
01
b01 &
1-
1.
1:
03
#750
0!
0>
#825
1!
1>
b00000000000000000000000000000000 J
00
b00 &
b000000000000000000000000000000000000000000000000000000000000000000000000000000000000000000000000000000000000000000000000000000000000000000000000000000000000000000000000000000000000000000000000000000000000000000000000000000000000000000000000000000000000000000000000000000000000000000000001 6
b00000000000000000000000000000000000000000000000000000000000000000000000000000000000000000000000000000000000000000000000000000000000000000000000000000000000000000000000000000000000000000000000000000000000000000000000000000000000000000000000000000000000000000000000000000000000000000000000000000000000000000000000000000000000000000000000000000000000000000000000000000000000000000000000000000000000000000000000000000000000000000000000000000000000000000000000000000000000000000000000000000000000000000000000000000000000000000000000000000000000000000000000000000000000000000000000000000000000000000000000000000000000000000000000000000000000000000000000000000000000000000000000000000000000000000000000000000000000000000000000000000000000000000000000000000000000000000000000000000000000000000000000000000000000000000000000000000000000000000000000000000000000000000000000000000000000000000000000000000000000000000000000000000000000000000000000000000000000000000000000000000000000000000000000000000000000000000000000000000000000000000000000000000000000000000000000000000000000000000000000000000000000000000000000000000000000000000000000000000000000000000000000000000000000000000000000000000000000000000000000000000000000000000000000000000000000000000000000000000000000000000000000000000000000000000000000000000000000000000000000000000000000000000000000000000000000000000000000000000000000000000000000000000000000000000000000000000000000000000000000000000000000000000000000000000000000000000000000000000000000000000000000000000000000000000000000000000000000000000000000000000000000000000000000000000000000000000000000000000000000000000000000000000000000000000000000000000000000000000000000000000000000000000000000000000000000000000000000000000000000000000000000000000000000000000000000000000000000000000000000000000000000000000000000000000000000000000000000000000000000000000000000000000000000000000000000000000000000000000000000000000000000000000000000000000000000000000000000000000000000000000000000000000000000100010011011100000000000100000000001100010011 =
1(
1H
0M
b0000000000000000000100010011011100000000000100000000001100010011 9
b0000000000000000000100010011011100000000000100000000001100010011 5
b0000000000000000000100010011011100000000000100000000001100010011 Q
1P
b00000000000100000000001100010011 O
b00000000000000000000000000000100 L
b0000000000010000000000110001001100000000000000000000000000000000000000000000000000000000000001001 R
#900
0!
0>
#975
1!
1>
b00000000000000000000000000000100 K
b00000000000000000000000000001000 L
b00000000000000000001000100110111 O
b00000000000000000000000000000100 N
b0000000000000000000100010011011100000000000000000000000000000100000000000000000000000000000010001 R
#1050
0!
0>
#1125
1!
1>
b00000000000000000000000000001000 K
b00000000000000000000000000001000 I
b00000000000000000000000000001000 %
b00001 +
b00001 ;
b00001 8
b00000000000000000000000000001000 '
b00000000000000000000000000001100 L
b00000000000100000000001100010011 O
b00000000000000000000000000001000 N
b0000000000000000000000000000000000000000000000000000000000000000 9
b0000000000000000000000000000000000000000000000000000000000000000 5
b0000000000000000000000000000000000000000000000000000000000000000 Q
11
0.
0:
0(
0H
1M
b0000000000010000000000110001001100000000000000000000000000001000000000000000000000000000000011001 R
0P
b00000000000000000000000000010011 O
b00000000000000000000000000000000 N
b00000000000000000000000000001000 L
13
b0000000000000000000000000001001100000000000000000000000000000000000000000000000000000000000001000 R
#1200
0!
0>
b0000001111110011000000011011001100000000101000000000111110010011 4
b0000001111110011000000011011001100000000101000000000111110010011 <
#1275
1!
1>
b00001 ,
10
01
b01 &
1.
1:
03
#1350
0!
0>
#1425
1!
1>
00
b00 &
b000000000000000000000000000000000000000000000000000000000000000000000000000000000000000000000000000000000000000000000000000000000000000000000000000000000000000000000000000000000000000000000000000000000000000000000000000000000000000000000000000000000000000000000000000000000000001000000001 6
b00000000000000000000000000000000000000000000000000000000000000000000000000000000000000000000000000000000000000000000000000000000000000000000000000000000000000000000000000000000000000000000000000000000000000000000000000000000000000000000000000000000000000000000000000000000000000000000000000000000000000000000000000000000000000000000000000000000000000000000000000000000000000000000000000000000000000000000000000000000000000000000000000000000000000000000000000000000000000000000000000000000000000000000000000000000000000000000000000000000000000000000000000000000000000000000000000000000000000000000000000000000000000000000000000000000000000000000000000000000000000000000000000000000000000000000000000000000000000000000000000000000000000000000000000000000000000000000000000000000000000000000000000000000000000000000000000000000000000000000000000000000000000000000000000000000000000000000000000000000000000000000000000000000000000000000000000000000000000000000000000000000000000000000000000000000000000000000000000000000000000000000000000000000000000000000000000000000000000000000000000000000000000000000000000000000000000000000000000000000000000000000000000000000000000000000000000000000000000000000000000000000000000000000000000000000000000000000000000000000000000000000000000000000000000000000000000000000000000000000000000000000000000000000000000000000000000000000000000000000000000000000000000000000000000000000000000000000000000000000000000000000000000000000000000000000000000000000000000000000000000000000000000000000000000000000000000000000000000000000000000000000000000000000000000000000000000000000000000000000000000000000000000000000000000000000000000000000000000000000000000000000000000000000000000000000000000000000000000000000000000000000000000000000000000000000000000000000000000000000000000000000000000000000000000000000000000000000000000000000000000000000000000000000000000000000000000000000000000000000000000000011111100110000000110110011000000001010000000001111100100110000000000000000000100010011011100000000000100000000001100010011 =
1(
1H
0M
b0000001111110011000000011011001100000000101000000000111110010011 9
b0000001111110011000000011011001100000000101000000000111110010011 5
b0000001111110011000000011011001100000000101000000000111110010011 Q
1P
b00000000101000000000111110010011 O
b00000000000000000000000000001000 N
b00000000000000000000000000001100 L
b0000000010100000000011111001001100000000000000000000000000001000000000000000000000000000000011001 R
#1500
0!
0>
#1575
1!
1>
b00000000000000000000000000001100 K
b00000000000000000000000000010000 L
b00000011111100110000000110110011 O
b00000000000000000000000000001100 N
b0000001111110011000000011011001100000000000000000000000000001100000000000000000000000000000100001 R
#1650
0!
0>
#1725
1!
1>
b00000000000000000000000000010000 K
b00000000000000000000000000010000 I
b00000000000000000000000000010000 %
b00010 +
b00010 ;
b00010 8
b00000000000000000000000000010000 '
b00000000000000000000000000010100 L
b00000000101000000000111110010011 O
b00000000000000000000000000010000 N
b0000000000000000000000000000000000000000000000000000000000000000 9
b0000000000000000000000000000000000000000000000000000000000000000 5
b0000000000000000000000000000000000000000000000000000000000000000 Q
11
0.
0:
0(
0H
1M
b0000000010100000000011111001001100000000000000000000000000010000000000000000000000000000000101001 R
0P
b00000000000000000000000000010011 O
b00000000000000000000000000000000 N
b00000000000000000000000000010000 L
13
b0000000000000000000000000001001100000000000000000000000000000000000000000000000000000000000001000 R
#1800
0!
0>
b0000000000000001001000100000001100000000001100010010000000100011 4
b0000000000000001001000100000001100000000001100010010000000100011 <
#1875
1!
1>
b00010 ,
10
01
b01 &
1.
1:
03
#1950
0!
0>
#2025
1!
1>
00
b00 &
b000000000000000000000000000000000000000000000000000000000000000000000000000000000000000000000000000000000000000000000000000000000000000000000000000000000000000000000000000000000000000000000000000000000000000000000000000000000000000000000000000000000000000000000000000001000000001000000001 6
b00000000000000000000000000000000000000000000000000000000000000000000000000000000000000000000000000000000000000000000000000000000000000000000000000000000000000000000000000000000000000000000000000000000000000000000000000000000000000000000000000000000000000000000000000000000000000000000000000000000000000000000000000000000000000000000000000000000000000000000000000000000000000000000000000000000000000000000000000000000000000000000000000000000000000000000000000000000000000000000000000000000000000000000000000000000000000000000000000000000000000000000000000000000000000000000000000000000000000000000000000000000000000000000000000000000000000000000000000000000000000000000000000000000000000000000000000000000000000000000000000000000000000000000000000000000000000000000000000000000000000000000000000000000000000000000000000000000000000000000000000000000000000000000000000000000000000000000000000000000000000000000000000000000000000000000000000000000000000000000000000000000000000000000000000000000000000000000000000000000000000000000000000000000000000000000000000000000000000000000000000000000000000000000000000000000000000000000000000000000000000000000000000000000000000000000000000000000000000000000000000000000000000000000000000000000000000000000000000000000000000000000000000000000000000000000000000000000000000000000000000000000000000000000000000000000000000000000000000000000000000000000000000000000000000000000000000000000000000000000000000000000000000000000000000000000000000000000000000000000000000000000000000000000000000000000000000000000000000000000000000000000000000000000000000000000000000000000000000000000000000000000000000000000000000000000000000000000000000000000000000000000000000000000000000000000000000000000000000000000000000000000000000000000000000000000000000000000000000000000000000000000000000000000000000000000000000000000000000000000000000000000000100100010000000110000000000110001001000000010001100000011111100110000000110110011000000001010000000001111100100110000000000000000000100010011011100000000000100000000001100010011 =
1(
1H
0M
b0000000000000001001000100000001100000000001100010010000000100011 9
b0000000000000001001000100000001100000000001100010010000000100011 5
b0000000000000001001000100000001100000000001100010010000000100011 Q
1P
b00000000001100010010000000100011 O
b00000000000000000000000000010000 N
b00000000000000000000000000010100 L
b0000000000110001001000000010001100000000000000000000000000010000000000000000000000000000000101001 R
#2100
0!
0>
#2175
1!
1>
b00000000000000000000000000010100 K
b00000000000000000000000000011000 L
b00000000000000010010001000000011 O
b00000000000000000000000000010100 N
b0000000000000001001000100000001100000000000000000000000000010100000000000000000000000000000110001 R
#2250
0!
0>
#2325
1!
1>
b00000000000000000000000000011000 K
b00000000000000000000000000011000 I
b00000000000000000000000000011000 %
b00011 +
b00011 ;
b00011 8
b00000000000000000000000000011000 '
b00000000000000000000000000011100 L
b00000000001100010010000000100011 O
b00000000000000000000000000011000 N
b0000000000000000000000000000000000000000000000000000000000000000 9
b0000000000000000000000000000000000000000000000000000000000000000 5
b0000000000000000000000000000000000000000000000000000000000000000 Q
11
0.
0:
0(
0H
1M
b0000000000110001001000000010001100000000000000000000000000011000000000000000000000000000000111001 R
0P
b00000000000000000000000000010011 O
b00000000000000000000000000000000 N
b00000000000000000000000000011000 L
13
b0000000000000000000000000001001100000000000000000000000000000000000000000000000000000000000001000 R
#2400
0!
0>
b0000000010000001000000111001001100010000010000010010000000100011 4
b0000000010000001000000111001001100010000010000010010000000100011 <
#2475
1!
1>
b00011 ,
10
01
b01 &
1.
1:
03
#2550
0!
0>
